{
  "type": "service_account",
  "project_id": "keysheets",
  "private_key_id": "5ddc344647738146e2ae680f60673b8fb7e5c339",
  "private_key": "-----BEGIN PRIVATE KEY-----\nMIIEvgIBADANBgkqhkiG9w0BAQEFAASCBKgwggSkAgEAAoIBAQDq1e4d0bHUCZaw\n1s76HUjzPPYimDYSoci6OXaIC6nsIxJs74DdTmWpbjrEy/1m+BSGvqStvRY6h/s1\nerI5YrclGP0QHZHmq6ZkhHKY8Rz9rbC24cMsbfxUmW8yU57XYJT8FueEfraXsMXQ\nOazs32PwLOZ3JbOyR+Axy1AhDA/vphYngDq/pitQPo09GOSCOtflgC92ruQXBDOF\nYZqPlJBYQM89s2yJKt4YRxyPcf5iDjwsRTzARO75B9x+F6yxjkfsyr/oPzcHth3V\nL8OWBFY71PcbPLC4BukyayUg5/AAZsWgDl9z1T5yS656JLTqDMStd5Om4wrKbqCZ\nNXTbQNgJAgMBAAECggEAFmlVQL5G8Nv7aCQP+7m4wRHz0YhiPLP48qDSSZiHXnRY\naVIQI868EAfnjumC5QVO/C8Mi1Is4Wgh1tA/Ww+rN9yjJhsUVgXSquwi/aqhICqn\n30Q7eq2Cc9Zy0MQ/OAHNJiPPc4seROrHbiBa+v40zPKUChHsjNqkMExdeNHsYWvz\nC2pnRqfcxmLn9tHmIK7I3jJOJ1Z/21eYyV/lNWMT4hxoS0kpfrR0vMpoq8+nl09Y\nCOIQyRLojErYwYKdUh0HQSkcoLR4XcPj8zfcZlz480cX2lJJrPsj2pojeCo5nEl/\nu93LY+BeKPwcPW1lhzBoGj0oM+0q5NfnK076zH3YyQKBgQD2WYLxFVY5TToJHrWY\npfJV/FOd2RfjPXYVqRN/6ZnUr30z/yoUV4v5YhWXSKAzmVwBOCeV8mJjCQopKyuk\nSwZNxkJnzDdWWzgR/R8PuDXW/2SaUTfM5j2vJhmE88ULUKBXAsrO/sF9EH3PheLO\nN2Jfh6fGfx9tYtZkxQ3ae8rAFQKBgQD0CPOzwTpLwyNdBVLS7Yn+hkyfoODlOmtM\nyeEAF+XY7/Nqy4tBunlSUEU68BMKFaC357rw0kbse/+KVnz+xcMgjlu9EngwJriM\nMpx++ZqLGIAIk/wr/U2AIbnPuaSSBuQq0YK1p/vz6rSrQeBoDishUeIexHOVIuFv\n/GybhScBJQKBgQDt2cbfViaF9NZP7+KNm8u60YE6Kl0x/imBCFnXaogoHbfY+Eh8\nk3qGMfl+s5RZvXxjgQBXekscK6Iv1Yqxee6AMSf0Z+wV6MTeOXJADy+MgdF0XW5u\n2u47qaGCCIr7PcFRwVRnPvk58y5Fq5MsX7UPXz7SG/MP/hnZ+ZhClrtPcQKBgQDm\n0tTYUMu4P7JiWRe3RVGCOzucvYobqD832bgF45TXtlcSy8ZDfIMm1aA2GECaCE0F\nxp1vDiZhpwPVsOr3/M0NLToew6qFOQrUKUcXXzbLnHf2JSuf3C8DJGNh1SGRsgz9\nZ0BwXJ0XYQhU+LGvGr+2+4GbQoxlIyIDT8rW64IyNQKBgC5OjmhoAh9wcY8OwDEF\nprqkKZB5obmzO8ftFeO3dBkutDrWYYawihX7UTpHYDYoxnvw6bX0qXzW9QtubG+D\nuMFm5RIS1N9ywfEoFT/y4fe1pGAvlhvEVnhVK2/HXRqWFcEkx7fkDTK3lOwqNNsb\nRLb3d8ZA/08fDIXBU1Z9CY0E\n-----END PRIVATE KEY-----\n",
  "client_email": "keys-sheets@keysheets.iam.gserviceaccount.com",
  "client_id": "100476304432132184847",
  "auth_uri": "https://accounts.google.com/o/oauth2/auth",
  "token_uri": "https://oauth2.googleapis.com/token",
  "auth_provider_x509_cert_url": "https://www.googleapis.com/oauth2/v1/certs",
  "client_x509_cert_url": "https://www.googleapis.com/robot/v1/metadata/x509/keys-sheets%40keysheets.iam.gserviceaccount.com"
}
